info face="Courier New" size=38 bold=0 italic=0 charset="" unicode=0 stretchH=100 smooth=1 aa=1 padding=1,1,1,1 spacing=-2,-2
common lineHeight=44 base=32 scaleW=512 scaleH=512 pages=1 packed=0
page id=0 file="Courier-New_38.png"
chars count=191
char id=0       x=252  y=66   width=22   height=27   xoffset=1    yoffset=6    xadvance=23   page=0    chnl=0 
char id=10      x=0    y=0    width=0    height=0    xoffset=-1   yoffset=0    xadvance=0    page=0    chnl=0 
char id=32      x=0    y=0    width=0    height=0    xoffset=-1   yoffset=0    xadvance=23   page=0    chnl=0 
char id=33      x=501  y=66   width=8    height=26   xoffset=8    yoffset=7    xadvance=23   page=0    chnl=0 
char id=34      x=372  y=170  width=15   height=13   xoffset=4    yoffset=6    xadvance=23   page=0    chnl=0 
char id=35      x=311  y=35   width=18   height=29   xoffset=3    yoffset=6    xadvance=23   page=0    chnl=0 
char id=36      x=48   y=35   width=17   height=31   xoffset=3    yoffset=6    xadvance=23   page=0    chnl=0 
char id=37      x=241  y=93   width=18   height=26   xoffset=2    yoffset=7    xadvance=23   page=0    chnl=0 
char id=38      x=335  y=145  width=16   height=23   xoffset=4    yoffset=10   xadvance=23   page=0    chnl=0 
char id=39      x=504  y=35   width=6    height=14   xoffset=8    yoffset=6    xadvance=23   page=0    chnl=0 
char id=40      x=59   y=0    width=9    height=32   xoffset=10   yoffset=6    xadvance=23   page=0    chnl=0 
char id=41      x=495  y=0    width=9    height=31   xoffset=5    yoffset=7    xadvance=23   page=0    chnl=0 
char id=42      x=280  y=170  width=16   height=17   xoffset=3    yoffset=7    xadvance=23   page=0    chnl=0 
char id=43      x=351  y=145  width=20   height=22   xoffset=1    yoffset=10   xadvance=23   page=0    chnl=0 
char id=44      x=349  y=170  width=9    height=14   xoffset=5    yoffset=25   xadvance=23   page=0    chnl=0 
char id=45      x=38   y=190  width=19   height=5    xoffset=2    yoffset=18   xadvance=23   page=0    chnl=0 
char id=46      x=0    y=190  width=9    height=8    xoffset=7    yoffset=25   xadvance=23   page=0    chnl=0 
char id=47      x=10   y=35   width=19   height=31   xoffset=2    yoffset=5    xadvance=23   page=0    chnl=0 
char id=48      x=234  y=66   width=18   height=27   xoffset=3    yoffset=6    xadvance=23   page=0    chnl=0 
char id=49      x=125  y=66   width=17   height=27   xoffset=3    yoffset=6    xadvance=23   page=0    chnl=0 
char id=50      x=142  y=66   width=18   height=27   xoffset=2    yoffset=6    xadvance=23   page=0    chnl=0 
char id=51      x=186  y=93   width=19   height=26   xoffset=2    yoffset=7    xadvance=23   page=0    chnl=0 
char id=52      x=160  y=66   width=18   height=27   xoffset=2    yoffset=6    xadvance=23   page=0    chnl=0 
char id=53      x=178  y=66   width=18   height=27   xoffset=2    yoffset=6    xadvance=23   page=0    chnl=0 
char id=54      x=196  y=66   width=19   height=27   xoffset=3    yoffset=6    xadvance=23   page=0    chnl=0 
char id=55      x=215  y=66   width=19   height=27   xoffset=2    yoffset=6    xadvance=23   page=0    chnl=0 
char id=56      x=205  y=93   width=17   height=26   xoffset=3    yoffset=7    xadvance=23   page=0    chnl=0 
char id=57      x=222  y=93   width=19   height=26   xoffset=3    yoffset=7    xadvance=23   page=0    chnl=0 
char id=58      x=498  y=145  width=9    height=20   xoffset=7    yoffset=13   xadvance=23   page=0    chnl=0 
char id=59      x=283  y=145  width=12   height=23   xoffset=5    yoffset=13   xadvance=23   page=0    chnl=0 
char id=60      x=295  y=145  width=20   height=23   xoffset=1    yoffset=10   xadvance=23   page=0    chnl=0 
char id=61      x=454  y=170  width=21   height=11   xoffset=1    yoffset=15   xadvance=23   page=0    chnl=0 
char id=62      x=315  y=145  width=20   height=23   xoffset=2    yoffset=10   xadvance=23   page=0    chnl=0 
char id=63      x=490  y=120  width=17   height=25   xoffset=4    yoffset=8    xadvance=23   page=0    chnl=0 
char id=64      x=293  y=35   width=18   height=29   xoffset=3    yoffset=6    xadvance=23   page=0    chnl=0 
char id=65      x=467  y=93   width=27   height=25   xoffset=-2   yoffset=8    xadvance=23   page=0    chnl=0 
char id=66      x=0    y=120  width=22   height=25   xoffset=1    yoffset=8    xadvance=23   page=0    chnl=0 
char id=67      x=22   y=120  width=20   height=25   xoffset=1    yoffset=8    xadvance=23   page=0    chnl=0 
char id=68      x=42   y=120  width=22   height=25   xoffset=1    yoffset=8    xadvance=23   page=0    chnl=0 
char id=69      x=64   y=120  width=21   height=25   xoffset=1    yoffset=8    xadvance=23   page=0    chnl=0 
char id=70      x=85   y=120  width=21   height=25   xoffset=2    yoffset=8    xadvance=23   page=0    chnl=0 
char id=71      x=106  y=120  width=23   height=25   xoffset=1    yoffset=8    xadvance=23   page=0    chnl=0 
char id=72      x=129  y=120  width=23   height=25   xoffset=0    yoffset=8    xadvance=23   page=0    chnl=0 
char id=73      x=494  y=93   width=16   height=25   xoffset=3    yoffset=8    xadvance=23   page=0    chnl=0 
char id=74      x=152  y=120  width=21   height=25   xoffset=2    yoffset=8    xadvance=23   page=0    chnl=0 
char id=75      x=173  y=120  width=24   height=25   xoffset=1    yoffset=8    xadvance=23   page=0    chnl=0 
char id=76      x=197  y=120  width=22   height=25   xoffset=1    yoffset=8    xadvance=23   page=0    chnl=0 
char id=77      x=219  y=120  width=25   height=25   xoffset=-1   yoffset=8    xadvance=23   page=0    chnl=0 
char id=78      x=244  y=120  width=23   height=25   xoffset=0    yoffset=8    xadvance=23   page=0    chnl=0 
char id=79      x=267  y=120  width=22   height=25   xoffset=1    yoffset=8    xadvance=23   page=0    chnl=0 
char id=80      x=289  y=120  width=20   height=25   xoffset=2    yoffset=8    xadvance=23   page=0    chnl=0 
char id=81      x=271  y=35   width=22   height=29   xoffset=1    yoffset=8    xadvance=23   page=0    chnl=0 
char id=82      x=309  y=120  width=22   height=25   xoffset=1    yoffset=8    xadvance=23   page=0    chnl=0 
char id=83      x=246  y=145  width=18   height=24   xoffset=2    yoffset=9    xadvance=23   page=0    chnl=0 
char id=84      x=331  y=120  width=21   height=25   xoffset=1    yoffset=8    xadvance=23   page=0    chnl=0 
char id=85      x=352  y=120  width=23   height=25   xoffset=0    yoffset=8    xadvance=23   page=0    chnl=0 
char id=86      x=375  y=120  width=26   height=25   xoffset=-2   yoffset=8    xadvance=23   page=0    chnl=0 
char id=87      x=401  y=120  width=27   height=25   xoffset=-2   yoffset=8    xadvance=23   page=0    chnl=0 
char id=88      x=428  y=120  width=22   height=25   xoffset=0    yoffset=8    xadvance=23   page=0    chnl=0 
char id=89      x=450  y=120  width=22   height=25   xoffset=1    yoffset=8    xadvance=23   page=0    chnl=0 
char id=90      x=472  y=120  width=18   height=25   xoffset=3    yoffset=8    xadvance=23   page=0    chnl=0 
char id=91      x=68   y=0    width=9    height=32   xoffset=9    yoffset=6    xadvance=23   page=0    chnl=0 
char id=92      x=29   y=35   width=19   height=31   xoffset=2    yoffset=5    xadvance=23   page=0    chnl=0 
char id=93      x=77   y=0    width=10   height=32   xoffset=4    yoffset=6    xadvance=23   page=0    chnl=0 
char id=94      x=387  y=170  width=17   height=13   xoffset=3    yoffset=7    xadvance=23   page=0    chnl=0 
char id=95      x=57   y=190  width=25   height=5    xoffset=-1   yoffset=38   xadvance=23   page=0    chnl=0 
char id=96      x=502  y=170  width=9    height=8    xoffset=7    yoffset=6    xadvance=23   page=0    chnl=0 
char id=97      x=412  y=145  width=20   height=20   xoffset=2    yoffset=13   xadvance=23   page=0    chnl=0 
char id=98      x=411  y=35   width=23   height=27   xoffset=0    yoffset=6    xadvance=23   page=0    chnl=0 
char id=99      x=432  y=145  width=20   height=20   xoffset=2    yoffset=13   xadvance=23   page=0    chnl=0 
char id=100     x=434  y=35   width=22   height=27   xoffset=1    yoffset=6    xadvance=23   page=0    chnl=0 
char id=101     x=452  y=145  width=20   height=20   xoffset=2    yoffset=13   xadvance=23   page=0    chnl=0 
char id=102     x=456  y=35   width=20   height=27   xoffset=2    yoffset=6    xadvance=23   page=0    chnl=0 
char id=103     x=476  y=35   width=21   height=27   xoffset=2    yoffset=13   xadvance=23   page=0    chnl=0 
char id=104     x=0    y=66   width=23   height=27   xoffset=0    yoffset=6    xadvance=23   page=0    chnl=0 
char id=105     x=349  y=35   width=18   height=28   xoffset=2    yoffset=5    xadvance=23   page=0    chnl=0 
char id=106     x=0    y=0    width=15   height=35   xoffset=2    yoffset=5    xadvance=23   page=0    chnl=0 
char id=107     x=23   y=66   width=19   height=27   xoffset=3    yoffset=6    xadvance=23   page=0    chnl=0 
char id=108     x=42   y=66   width=18   height=27   xoffset=2    yoffset=6    xadvance=23   page=0    chnl=0 
char id=109     x=472  y=145  width=26   height=20   xoffset=-1   yoffset=13   xadvance=23   page=0    chnl=0 
char id=110     x=0    y=170  width=23   height=20   xoffset=0    yoffset=13   xadvance=23   page=0    chnl=0 
char id=111     x=199  y=170  width=21   height=19   xoffset=2    yoffset=14   xadvance=23   page=0    chnl=0 
char id=112     x=60   y=66   width=23   height=27   xoffset=0    yoffset=13   xadvance=23   page=0    chnl=0 
char id=113     x=83   y=66   width=21   height=27   xoffset=2    yoffset=13   xadvance=23   page=0    chnl=0 
char id=114     x=23   y=170  width=21   height=20   xoffset=2    yoffset=13   xadvance=23   page=0    chnl=0 
char id=115     x=44   y=170  width=18   height=20   xoffset=3    yoffset=13   xadvance=23   page=0    chnl=0 
char id=116     x=264  y=145  width=19   height=24   xoffset=2    yoffset=9    xadvance=23   page=0    chnl=0 
char id=117     x=62   y=170  width=23   height=20   xoffset=0    yoffset=13   xadvance=23   page=0    chnl=0 
char id=118     x=85   y=170  width=25   height=20   xoffset=-1   yoffset=13   xadvance=23   page=0    chnl=0 
char id=119     x=110  y=170  width=24   height=20   xoffset=-1   yoffset=13   xadvance=23   page=0    chnl=0 
char id=120     x=134  y=170  width=21   height=20   xoffset=1    yoffset=13   xadvance=23   page=0    chnl=0 
char id=121     x=104  y=66   width=21   height=27   xoffset=2    yoffset=13   xadvance=23   page=0    chnl=0 
char id=122     x=155  y=170  width=19   height=20   xoffset=2    yoffset=13   xadvance=23   page=0    chnl=0 
char id=123     x=0    y=35   width=10   height=31   xoffset=7    yoffset=7    xadvance=23   page=0    chnl=0 
char id=124     x=504  y=0    width=5    height=30   xoffset=9    yoffset=7    xadvance=23   page=0    chnl=0 
char id=125     x=87   y=0    width=11   height=32   xoffset=6    yoffset=6    xadvance=23   page=0    chnl=0 
char id=126     x=475  y=170  width=19   height=9    xoffset=2    yoffset=16   xadvance=23   page=0    chnl=0 
char id=161     x=497  y=35   width=7    height=27   xoffset=9    yoffset=13   xadvance=23   page=0    chnl=0 
char id=162     x=0    y=145  width=16   height=25   xoffset=3    yoffset=8    xadvance=23   page=0    chnl=0 
char id=163     x=16   y=145  width=19   height=25   xoffset=1    yoffset=8    xadvance=23   page=0    chnl=0 
char id=164     x=220  y=170  width=19   height=19   xoffset=2    yoffset=11   xadvance=23   page=0    chnl=0 
char id=165     x=35   y=145  width=22   height=25   xoffset=1    yoffset=8    xadvance=23   page=0    chnl=0 
char id=166     x=157  y=35   width=5    height=30   xoffset=9    yoffset=7    xadvance=23   page=0    chnl=0 
char id=167     x=367  y=35   width=21   height=28   xoffset=1    yoffset=7    xadvance=23   page=0    chnl=0 
char id=168     x=18   y=190  width=14   height=6    xoffset=5    yoffset=6    xadvance=23   page=0    chnl=0 
char id=169     x=259  y=93   width=26   height=26   xoffset=-1   yoffset=7    xadvance=23   page=0    chnl=0 
char id=170     x=358  y=170  width=14   height=14   xoffset=5    yoffset=6    xadvance=23   page=0    chnl=0 
char id=171     x=239  y=170  width=20   height=19   xoffset=1    yoffset=14   xadvance=23   page=0    chnl=0 
char id=172     x=404  y=170  width=23   height=13   xoffset=-1   yoffset=19   xadvance=23   page=0    chnl=0 
char id=174     x=285  y=93   width=26   height=26   xoffset=-1   yoffset=7    xadvance=23   page=0    chnl=0 
char id=175     x=82   y=190  width=26   height=5    xoffset=-2   yoffset=3    xadvance=23   page=0    chnl=0 
char id=176     x=442  y=170  width=12   height=12   xoffset=5    yoffset=3    xadvance=23   page=0    chnl=0 
char id=177     x=57   y=145  width=20   height=25   xoffset=1    yoffset=8    xadvance=23   page=0    chnl=0 
char id=178     x=296  y=170  width=13   height=15   xoffset=5    yoffset=6    xadvance=23   page=0    chnl=0 
char id=179     x=309  y=170  width=12   height=15   xoffset=5    yoffset=7    xadvance=23   page=0    chnl=0 
char id=180     x=9    y=190  width=9    height=8    xoffset=7    yoffset=6    xadvance=23   page=0    chnl=0 
char id=181     x=274  y=66   width=23   height=27   xoffset=0    yoffset=13   xadvance=23   page=0    chnl=0 
char id=182     x=329  y=35   width=20   height=29   xoffset=2    yoffset=6    xadvance=23   page=0    chnl=0 
char id=183     x=32   y=190  width=6    height=6    xoffset=12   yoffset=16   xadvance=23   page=0    chnl=0 
char id=184     x=494  y=170  width=8    height=9    xoffset=7    yoffset=30   xadvance=23   page=0    chnl=0 
char id=185     x=321  y=170  width=13   height=15   xoffset=6    yoffset=7    xadvance=23   page=0    chnl=0 
char id=186     x=427  y=170  width=15   height=13   xoffset=4    yoffset=7    xadvance=23   page=0    chnl=0 
char id=187     x=259  y=170  width=21   height=19   xoffset=1    yoffset=14   xadvance=23   page=0    chnl=0 
char id=188     x=311  y=93   width=26   height=26   xoffset=-1   yoffset=7    xadvance=23   page=0    chnl=0 
char id=189     x=337  y=93   width=26   height=26   xoffset=-1   yoffset=7    xadvance=23   page=0    chnl=0 
char id=190     x=297  y=66   width=26   height=27   xoffset=-1   yoffset=6    xadvance=23   page=0    chnl=0 
char id=191     x=323  y=66   width=17   height=27   xoffset=3    yoffset=13   xadvance=23   page=0    chnl=0 
char id=192     x=98   y=0    width=27   height=32   xoffset=-2   yoffset=1    xadvance=23   page=0    chnl=0 
char id=193     x=125  y=0    width=27   height=32   xoffset=-2   yoffset=1    xadvance=23   page=0    chnl=0 
char id=194     x=152  y=0    width=27   height=32   xoffset=-2   yoffset=1    xadvance=23   page=0    chnl=0 
char id=195     x=65   y=35   width=27   height=31   xoffset=-2   yoffset=2    xadvance=23   page=0    chnl=0 
char id=196     x=162  y=35   width=27   height=30   xoffset=-2   yoffset=3    xadvance=23   page=0    chnl=0 
char id=197     x=179  y=0    width=27   height=32   xoffset=-2   yoffset=1    xadvance=23   page=0    chnl=0 
char id=198     x=77   y=145  width=26   height=25   xoffset=-1   yoffset=8    xadvance=23   page=0    chnl=0 
char id=199     x=92   y=35   width=20   height=31   xoffset=1    yoffset=8    xadvance=23   page=0    chnl=0 
char id=200     x=206  y=0    width=21   height=32   xoffset=1    yoffset=1    xadvance=23   page=0    chnl=0 
char id=201     x=227  y=0    width=21   height=32   xoffset=1    yoffset=1    xadvance=23   page=0    chnl=0 
char id=202     x=248  y=0    width=21   height=32   xoffset=1    yoffset=1    xadvance=23   page=0    chnl=0 
char id=203     x=189  y=35   width=21   height=30   xoffset=1    yoffset=3    xadvance=23   page=0    chnl=0 
char id=204     x=269  y=0    width=16   height=32   xoffset=3    yoffset=1    xadvance=23   page=0    chnl=0 
char id=205     x=285  y=0    width=16   height=32   xoffset=3    yoffset=1    xadvance=23   page=0    chnl=0 
char id=206     x=301  y=0    width=16   height=32   xoffset=3    yoffset=1    xadvance=23   page=0    chnl=0 
char id=207     x=210  y=35   width=16   height=30   xoffset=3    yoffset=3    xadvance=23   page=0    chnl=0 
char id=208     x=103  y=145  width=22   height=25   xoffset=1    yoffset=8    xadvance=23   page=0    chnl=0 
char id=209     x=112  y=35   width=23   height=31   xoffset=0    yoffset=2    xadvance=23   page=0    chnl=0 
char id=210     x=317  y=0    width=22   height=32   xoffset=1    yoffset=1    xadvance=23   page=0    chnl=0 
char id=211     x=339  y=0    width=22   height=32   xoffset=1    yoffset=1    xadvance=23   page=0    chnl=0 
char id=212     x=361  y=0    width=22   height=32   xoffset=1    yoffset=1    xadvance=23   page=0    chnl=0 
char id=213     x=135  y=35   width=22   height=31   xoffset=1    yoffset=2    xadvance=23   page=0    chnl=0 
char id=214     x=226  y=35   width=22   height=30   xoffset=1    yoffset=3    xadvance=23   page=0    chnl=0 
char id=215     x=334  y=170  width=15   height=15   xoffset=4    yoffset=14   xadvance=23   page=0    chnl=0 
char id=216     x=388  y=35   width=23   height=28   xoffset=0    yoffset=7    xadvance=23   page=0    chnl=0 
char id=217     x=383  y=0    width=23   height=32   xoffset=0    yoffset=1    xadvance=23   page=0    chnl=0 
char id=218     x=406  y=0    width=23   height=32   xoffset=0    yoffset=1    xadvance=23   page=0    chnl=0 
char id=219     x=429  y=0    width=23   height=32   xoffset=0    yoffset=1    xadvance=23   page=0    chnl=0 
char id=220     x=248  y=35   width=23   height=30   xoffset=0    yoffset=3    xadvance=23   page=0    chnl=0 
char id=221     x=452  y=0    width=22   height=32   xoffset=1    yoffset=1    xadvance=23   page=0    chnl=0 
char id=222     x=125  y=145  width=19   height=25   xoffset=2    yoffset=8    xadvance=23   page=0    chnl=0 
char id=223     x=340  y=66   width=21   height=27   xoffset=0    yoffset=6    xadvance=23   page=0    chnl=0 
char id=224     x=361  y=66   width=20   height=27   xoffset=2    yoffset=6    xadvance=23   page=0    chnl=0 
char id=225     x=381  y=66   width=20   height=27   xoffset=2    yoffset=6    xadvance=23   page=0    chnl=0 
char id=226     x=401  y=66   width=20   height=27   xoffset=2    yoffset=6    xadvance=23   page=0    chnl=0 
char id=227     x=363  y=93   width=20   height=26   xoffset=2    yoffset=7    xadvance=23   page=0    chnl=0 
char id=228     x=144  y=145  width=20   height=25   xoffset=2    yoffset=8    xadvance=23   page=0    chnl=0 
char id=229     x=421  y=66   width=20   height=27   xoffset=2    yoffset=6    xadvance=23   page=0    chnl=0 
char id=230     x=174  y=170  width=25   height=20   xoffset=-1   yoffset=13   xadvance=23   page=0    chnl=0 
char id=231     x=383  y=93   width=20   height=26   xoffset=2    yoffset=13   xadvance=23   page=0    chnl=0 
char id=232     x=441  y=66   width=20   height=27   xoffset=2    yoffset=6    xadvance=23   page=0    chnl=0 
char id=233     x=461  y=66   width=20   height=27   xoffset=2    yoffset=6    xadvance=23   page=0    chnl=0 
char id=234     x=481  y=66   width=20   height=27   xoffset=2    yoffset=6    xadvance=23   page=0    chnl=0 
char id=235     x=164  y=145  width=20   height=25   xoffset=2    yoffset=8    xadvance=23   page=0    chnl=0 
char id=236     x=0    y=93   width=18   height=27   xoffset=2    yoffset=6    xadvance=23   page=0    chnl=0 
char id=237     x=18   y=93   width=18   height=27   xoffset=2    yoffset=6    xadvance=23   page=0    chnl=0 
char id=238     x=36   y=93   width=18   height=27   xoffset=2    yoffset=6    xadvance=23   page=0    chnl=0 
char id=239     x=184  y=145  width=18   height=25   xoffset=2    yoffset=8    xadvance=23   page=0    chnl=0 
char id=240     x=403  y=93   width=20   height=26   xoffset=2    yoffset=7    xadvance=23   page=0    chnl=0 
char id=241     x=423  y=93   width=23   height=26   xoffset=0    yoffset=7    xadvance=23   page=0    chnl=0 
char id=242     x=54   y=93   width=21   height=27   xoffset=2    yoffset=6    xadvance=23   page=0    chnl=0 
char id=243     x=75   y=93   width=21   height=27   xoffset=2    yoffset=6    xadvance=23   page=0    chnl=0 
char id=244     x=96   y=93   width=21   height=27   xoffset=2    yoffset=6    xadvance=23   page=0    chnl=0 
char id=245     x=446  y=93   width=21   height=26   xoffset=2    yoffset=7    xadvance=23   page=0    chnl=0 
char id=246     x=202  y=145  width=21   height=25   xoffset=2    yoffset=8    xadvance=23   page=0    chnl=0 
char id=247     x=371  y=145  width=19   height=21   xoffset=1    yoffset=10   xadvance=23   page=0    chnl=0 
char id=248     x=390  y=145  width=22   height=21   xoffset=1    yoffset=13   xadvance=23   page=0    chnl=0 
char id=249     x=117  y=93   width=23   height=27   xoffset=0    yoffset=6    xadvance=23   page=0    chnl=0 
char id=250     x=140  y=93   width=23   height=27   xoffset=0    yoffset=6    xadvance=23   page=0    chnl=0 
char id=251     x=163  y=93   width=23   height=27   xoffset=0    yoffset=6    xadvance=23   page=0    chnl=0 
char id=252     x=223  y=145  width=23   height=25   xoffset=0    yoffset=8    xadvance=23   page=0    chnl=0 
char id=253     x=15   y=0    width=21   height=34   xoffset=2    yoffset=6    xadvance=23   page=0    chnl=0 
char id=254     x=36   y=0    width=23   height=34   xoffset=0    yoffset=6    xadvance=23   page=0    chnl=0 
char id=255     x=474  y=0    width=21   height=32   xoffset=2    yoffset=8    xadvance=23   page=0    chnl=0 
kernings count=0
