info face="Franklin Gothic Book" size=32 bold=0 italic=0 charset="" unicode=0 stretchH=100 smooth=1 aa=1 padding=1,1,1,1 spacing=-2,-2
common lineHeight=37 base=30 scaleW=512 scaleH=512 pages=1 packed=0
page id=0 file="FRABK_32.png"
chars count=193
char id=0       x=171  y=31   width=27   height=27   xoffset=3    yoffset=4    xadvance=32   page=0    chnl=0 
char id=10      x=0    y=0    width=0    height=0    xoffset=-1   yoffset=0    xadvance=0    page=0    chnl=0 
char id=32      x=0    y=0    width=0    height=0    xoffset=-1   yoffset=0    xadvance=8    page=0    chnl=0 
char id=33      x=503  y=31   width=5    height=24   xoffset=2    yoffset=7    xadvance=9    page=0    chnl=0 
char id=34      x=295  y=133  width=9    height=11   xoffset=1    yoffset=7    xadvance=10   page=0    chnl=0 
char id=35      x=347  y=85   width=19   height=24   xoffset=0    yoffset=7    xadvance=19   page=0    chnl=0 
char id=36      x=449  y=0    width=17   height=29   xoffset=1    yoffset=4    xadvance=19   page=0    chnl=0 
char id=37      x=324  y=85   width=23   height=24   xoffset=1    yoffset=7    xadvance=23   page=0    chnl=0 
char id=38      x=366  y=85   width=20   height=24   xoffset=1    yoffset=7    xadvance=21   page=0    chnl=0 
char id=39      x=304  y=133  width=5    height=11   xoffset=1    yoffset=7    xadvance=6    page=0    chnl=0 
char id=40      x=353  y=0    width=7    height=29   xoffset=1    yoffset=7    xadvance=9    page=0    chnl=0 
char id=41      x=360  y=0    width=8    height=29   xoffset=1    yoffset=7    xadvance=9    page=0    chnl=0 
char id=42      x=128  y=133  width=15   height=16   xoffset=2    yoffset=7    xadvance=19   page=0    chnl=0 
char id=43      x=68   y=133  width=17   height=19   xoffset=1    yoffset=9    xadvance=19   page=0    chnl=0 
char id=44      x=335  y=133  width=5    height=8    xoffset=1    yoffset=26   xadvance=8    page=0    chnl=0 
char id=45      x=389  y=133  width=10   height=5    xoffset=-1   yoffset=19   xadvance=8    page=0    chnl=0 
char id=46      x=384  y=133  width=5    height=5    xoffset=2    yoffset=26   xadvance=8    page=0    chnl=0 
char id=47      x=409  y=0    width=20   height=29   xoffset=-4   yoffset=7    xadvance=15   page=0    chnl=0 
char id=48      x=282  y=85   width=18   height=24   xoffset=1    yoffset=7    xadvance=19   page=0    chnl=0 
char id=49      x=122  y=85   width=17   height=24   xoffset=2    yoffset=7    xadvance=19   page=0    chnl=0 
char id=50      x=139  y=85   width=18   height=24   xoffset=1    yoffset=7    xadvance=19   page=0    chnl=0 
char id=51      x=157  y=85   width=18   height=24   xoffset=0    yoffset=7    xadvance=19   page=0    chnl=0 
char id=52      x=175  y=85   width=19   height=24   xoffset=0    yoffset=7    xadvance=19   page=0    chnl=0 
char id=53      x=194  y=85   width=18   height=24   xoffset=1    yoffset=7    xadvance=19   page=0    chnl=0 
char id=54      x=212  y=85   width=18   height=24   xoffset=1    yoffset=7    xadvance=19   page=0    chnl=0 
char id=55      x=230  y=85   width=16   height=24   xoffset=2    yoffset=7    xadvance=19   page=0    chnl=0 
char id=56      x=246  y=85   width=18   height=24   xoffset=1    yoffset=7    xadvance=19   page=0    chnl=0 
char id=57      x=264  y=85   width=18   height=24   xoffset=1    yoffset=7    xadvance=19   page=0    chnl=0 
char id=58      x=505  y=109  width=5    height=19   xoffset=1    yoffset=12   xadvance=8    page=0    chnl=0 
char id=59      x=287  y=109  width=5    height=22   xoffset=1    yoffset=12   xadvance=8    page=0    chnl=0 
char id=60      x=36   y=133  width=16   height=19   xoffset=2    yoffset=10   xadvance=19   page=0    chnl=0 
char id=61      x=309  y=133  width=16   height=10   xoffset=2    yoffset=14   xadvance=19   page=0    chnl=0 
char id=62      x=52   y=133  width=16   height=19   xoffset=2    yoffset=10   xadvance=19   page=0    chnl=0 
char id=63      x=165  y=109  width=15   height=23   xoffset=0    yoffset=8    xadvance=16   page=0    chnl=0 
char id=64      x=300  y=85   width=24   height=24   xoffset=0    yoffset=7    xadvance=24   page=0    chnl=0 
char id=65      x=64   y=60   width=21   height=24   xoffset=-2   yoffset=7    xadvance=17   page=0    chnl=0 
char id=66      x=85   y=60   width=16   height=24   xoffset=2    yoffset=7    xadvance=19   page=0    chnl=0 
char id=67      x=101  y=60   width=18   height=24   xoffset=1    yoffset=7    xadvance=19   page=0    chnl=0 
char id=68      x=119  y=60   width=19   height=24   xoffset=2    yoffset=7    xadvance=21   page=0    chnl=0 
char id=69      x=138  y=60   width=17   height=24   xoffset=2    yoffset=7    xadvance=18   page=0    chnl=0 
char id=70      x=155  y=60   width=15   height=24   xoffset=2    yoffset=7    xadvance=16   page=0    chnl=0 
char id=71      x=170  y=60   width=19   height=24   xoffset=1    yoffset=7    xadvance=21   page=0    chnl=0 
char id=72      x=189  y=60   width=18   height=24   xoffset=2    yoffset=7    xadvance=21   page=0    chnl=0 
char id=73      x=498  y=31   width=5    height=24   xoffset=2    yoffset=7    xadvance=8    page=0    chnl=0 
char id=74      x=207  y=60   width=12   height=24   xoffset=-1   yoffset=7    xadvance=12   page=0    chnl=0 
char id=75      x=219  y=60   width=18   height=24   xoffset=2    yoffset=7    xadvance=20   page=0    chnl=0 
char id=76      x=237  y=60   width=16   height=24   xoffset=2    yoffset=7    xadvance=16   page=0    chnl=0 
char id=77      x=253  y=60   width=23   height=24   xoffset=2    yoffset=7    xadvance=26   page=0    chnl=0 
char id=78      x=276  y=60   width=18   height=24   xoffset=2    yoffset=7    xadvance=21   page=0    chnl=0 
char id=79      x=294  y=60   width=19   height=24   xoffset=1    yoffset=7    xadvance=20   page=0    chnl=0 
char id=80      x=313  y=60   width=16   height=24   xoffset=2    yoffset=7    xadvance=18   page=0    chnl=0 
char id=81      x=325  y=0    width=18   height=29   xoffset=1    yoffset=7    xadvance=20   page=0    chnl=0 
char id=82      x=329  y=60   width=18   height=24   xoffset=2    yoffset=7    xadvance=20   page=0    chnl=0 
char id=83      x=347  y=60   width=18   height=24   xoffset=0    yoffset=7    xadvance=18   page=0    chnl=0 
char id=84      x=365  y=60   width=17   height=24   xoffset=0    yoffset=7    xadvance=16   page=0    chnl=0 
char id=85      x=382  y=60   width=16   height=24   xoffset=2    yoffset=7    xadvance=19   page=0    chnl=0 
char id=86      x=398  y=60   width=19   height=24   xoffset=-1   yoffset=7    xadvance=17   page=0    chnl=0 
char id=87      x=417  y=60   width=28   height=24   xoffset=-1   yoffset=7    xadvance=26   page=0    chnl=0 
char id=88      x=445  y=60   width=19   height=24   xoffset=-1   yoffset=7    xadvance=17   page=0    chnl=0 
char id=89      x=464  y=60   width=18   height=24   xoffset=-1   yoffset=7    xadvance=16   page=0    chnl=0 
char id=90      x=482  y=60   width=18   height=24   xoffset=0    yoffset=7    xadvance=17   page=0    chnl=0 
char id=91      x=368  y=0    width=8    height=29   xoffset=2    yoffset=7    xadvance=9    page=0    chnl=0 
char id=92      x=429  y=0    width=20   height=29   xoffset=-1   yoffset=7    xadvance=15   page=0    chnl=0 
char id=93      x=376  y=0    width=8    height=29   xoffset=0    yoffset=7    xadvance=9    page=0    chnl=0 
char id=94      x=197  y=133  width=19   height=13   xoffset=-2   yoffset=7    xadvance=16   page=0    chnl=0 
char id=95      x=399  y=133  width=19   height=5    xoffset=-1   yoffset=30   xadvance=16   page=0    chnl=0 
char id=96      x=358  y=133  width=9    height=7    xoffset=2    yoffset=6    xadvance=16   page=0    chnl=0 
char id=97      x=348  y=109  width=16   height=19   xoffset=0    yoffset=12   xadvance=17   page=0    chnl=0 
char id=98      x=0    y=85   width=15   height=24   xoffset=1    yoffset=7    xadvance=17   page=0    chnl=0 
char id=99      x=364  y=109  width=15   height=19   xoffset=0    yoffset=12   xadvance=15   page=0    chnl=0 
char id=100     x=15   y=85   width=16   height=24   xoffset=0    yoffset=7    xadvance=17   page=0    chnl=0 
char id=101     x=379  y=109  width=16   height=19   xoffset=0    yoffset=12   xadvance=17   page=0    chnl=0 
char id=102     x=31   y=85   width=13   height=24   xoffset=-1   yoffset=7    xadvance=10   page=0    chnl=0 
char id=103     x=198  y=31   width=18   height=26   xoffset=0    yoffset=10   xadvance=16   page=0    chnl=0 
char id=104     x=44   y=85   width=15   height=24   xoffset=1    yoffset=7    xadvance=17   page=0    chnl=0 
char id=105     x=500  y=60   width=5    height=24   xoffset=1    yoffset=7    xadvance=7    page=0    chnl=0 
char id=106     x=343  y=0    width=10   height=29   xoffset=-3   yoffset=7    xadvance=7    page=0    chnl=0 
char id=107     x=59   y=85   width=15   height=24   xoffset=1    yoffset=7    xadvance=16   page=0    chnl=0 
char id=108     x=505  y=60   width=5    height=24   xoffset=1    yoffset=7    xadvance=7    page=0    chnl=0 
char id=109     x=395  y=109  width=24   height=19   xoffset=1    yoffset=12   xadvance=26   page=0    chnl=0 
char id=110     x=419  y=109  width=15   height=19   xoffset=1    yoffset=12   xadvance=17   page=0    chnl=0 
char id=111     x=111  y=133  width=17   height=18   xoffset=0    yoffset=13   xadvance=17   page=0    chnl=0 
char id=112     x=74   y=85   width=16   height=24   xoffset=1    yoffset=12   xadvance=17   page=0    chnl=0 
char id=113     x=90   y=85   width=16   height=24   xoffset=0    yoffset=12   xadvance=17   page=0    chnl=0 
char id=114     x=434  y=109  width=11   height=19   xoffset=1    yoffset=12   xadvance=11   page=0    chnl=0 
char id=115     x=445  y=109  width=15   height=19   xoffset=-1   yoffset=12   xadvance=15   page=0    chnl=0 
char id=116     x=274  y=109  width=13   height=22   xoffset=-1   yoffset=9    xadvance=10   page=0    chnl=0 
char id=117     x=460  y=109  width=15   height=19   xoffset=1    yoffset=12   xadvance=17   page=0    chnl=0 
char id=118     x=475  y=109  width=15   height=19   xoffset=-1   yoffset=12   xadvance=14   page=0    chnl=0 
char id=119     x=0    y=133  width=22   height=19   xoffset=-1   yoffset=12   xadvance=21   page=0    chnl=0 
char id=120     x=490  y=109  width=15   height=19   xoffset=-1   yoffset=12   xadvance=14   page=0    chnl=0 
char id=121     x=106  y=85   width=16   height=24   xoffset=-2   yoffset=12   xadvance=13   page=0    chnl=0 
char id=122     x=22   y=133  width=14   height=19   xoffset=0    yoffset=12   xadvance=14   page=0    chnl=0 
char id=123     x=384  y=0    width=10   height=29   xoffset=0    yoffset=7    xadvance=9    page=0    chnl=0 
char id=124     x=404  y=0    width=5    height=29   xoffset=6    yoffset=7    xadvance=16   page=0    chnl=0 
char id=125     x=394  y=0    width=10   height=29   xoffset=0    yoffset=7    xadvance=9    page=0    chnl=0 
char id=126     x=367  y=133  width=17   height=7    xoffset=1    yoffset=16   xadvance=19   page=0    chnl=0 
char id=160     x=0    y=0    width=0    height=0    xoffset=-1   yoffset=0    xadvance=8    page=0    chnl=0 
char id=161     x=386  y=85   width=5    height=24   xoffset=2    yoffset=12   xadvance=9    page=0    chnl=0 
char id=162     x=216  y=31   width=15   height=26   xoffset=2    yoffset=5    xadvance=19   page=0    chnl=0 
char id=163     x=180  y=109  width=21   height=23   xoffset=-1   yoffset=8    xadvance=19   page=0    chnl=0 
char id=164     x=309  y=109  width=21   height=21   xoffset=1    yoffset=7    xadvance=21   page=0    chnl=0 
char id=165     x=391  y=85   width=18   height=24   xoffset=0    yoffset=7    xadvance=19   page=0    chnl=0 
char id=166     x=466  y=0    width=5    height=29   xoffset=6    yoffset=7    xadvance=16   page=0    chnl=0 
char id=167     x=471  y=0    width=17   height=29   xoffset=1    yoffset=7    xadvance=19   page=0    chnl=0 
char id=168     x=452  y=133  width=8    height=4    xoffset=3    yoffset=8    xadvance=16   page=0    chnl=0 
char id=169     x=339  y=31   width=25   height=25   xoffset=1    yoffset=7    xadvance=25   page=0    chnl=0 
char id=170     x=216  y=133  width=12   height=13   xoffset=-1   yoffset=7    xadvance=11   page=0    chnl=0 
char id=171     x=239  y=133  width=11   height=12   xoffset=1    yoffset=15   xadvance=11   page=0    chnl=0 
char id=172     x=250  y=133  width=16   height=12   xoffset=2    yoffset=19   xadvance=19   page=0    chnl=0 
char id=173     x=418  y=133  width=10   height=5    xoffset=-1   yoffset=19   xadvance=8    page=0    chnl=0 
char id=174     x=364  y=31   width=25   height=25   xoffset=1    yoffset=7    xadvance=25   page=0    chnl=0 
char id=175     x=428  y=133  width=19   height=5    xoffset=-1   yoffset=1    xadvance=16   page=0    chnl=0 
char id=176     x=325  y=133  width=10   height=10   xoffset=4    yoffset=8    xadvance=19   page=0    chnl=0 
char id=177     x=292  y=109  width=17   height=22   xoffset=1    yoffset=9    xadvance=19   page=0    chnl=0 
char id=178     x=143  y=133  width=13   height=16   xoffset=1    yoffset=7    xadvance=12   page=0    chnl=0 
char id=179     x=156  y=133  width=13   height=16   xoffset=1    yoffset=7    xadvance=12   page=0    chnl=0 
char id=180     x=340  y=133  width=9    height=8    xoffset=5    yoffset=5    xadvance=16   page=0    chnl=0 
char id=181     x=409  y=85   width=15   height=24   xoffset=1    yoffset=12   xadvance=17   page=0    chnl=0 
char id=182     x=488  y=0    width=19   height=29   xoffset=0    yoffset=7    xadvance=19   page=0    chnl=0 
char id=183     x=447  y=133  width=5    height=5    xoffset=-1   yoffset=20   xadvance=3    page=0    chnl=0 
char id=184     x=349  y=133  width=9    height=8    xoffset=4    yoffset=28   xadvance=16   page=0    chnl=0 
char id=185     x=169  y=133  width=12   height=16   xoffset=1    yoffset=7    xadvance=12   page=0    chnl=0 
char id=186     x=228  y=133  width=11   height=13   xoffset=-1   yoffset=7    xadvance=11   page=0    chnl=0 
char id=187     x=266  y=133  width=12   height=12   xoffset=0    yoffset=15   xadvance=11   page=0    chnl=0 
char id=188     x=424  y=85   width=29   height=24   xoffset=0    yoffset=7    xadvance=28   page=0    chnl=0 
char id=189     x=453  y=85   width=29   height=24   xoffset=0    yoffset=7    xadvance=28   page=0    chnl=0 
char id=190     x=482  y=85   width=29   height=24   xoffset=1    yoffset=7    xadvance=28   page=0    chnl=0 
char id=191     x=0    y=109  width=15   height=24   xoffset=1    yoffset=12   xadvance=16   page=0    chnl=0 
char id=192     x=116  y=0    width=21   height=30   xoffset=-2   yoffset=1    xadvance=17   page=0    chnl=0 
char id=193     x=0    y=0    width=21   height=31   xoffset=-2   yoffset=0    xadvance=17   page=0    chnl=0 
char id=194     x=137  y=0    width=21   height=30   xoffset=-2   yoffset=1    xadvance=17   page=0    chnl=0 
char id=195     x=0    y=31   width=21   height=29   xoffset=-2   yoffset=2    xadvance=17   page=0    chnl=0 
char id=196     x=74   y=31   width=21   height=28   xoffset=-2   yoffset=3    xadvance=17   page=0    chnl=0 
char id=197     x=158  y=0    width=21   height=30   xoffset=-2   yoffset=1    xadvance=17   page=0    chnl=0 
char id=198     x=15   y=109  width=31   height=24   xoffset=-1   yoffset=7    xadvance=29   page=0    chnl=0 
char id=199     x=179  y=0    width=18   height=30   xoffset=1    yoffset=7    xadvance=19   page=0    chnl=0 
char id=200     x=197  y=0    width=17   height=30   xoffset=2    yoffset=1    xadvance=18   page=0    chnl=0 
char id=201     x=21   y=0    width=17   height=31   xoffset=2    yoffset=0    xadvance=18   page=0    chnl=0 
char id=202     x=214  y=0    width=17   height=30   xoffset=2    yoffset=1    xadvance=18   page=0    chnl=0 
char id=203     x=95   y=31   width=17   height=28   xoffset=2    yoffset=3    xadvance=18   page=0    chnl=0 
char id=204     x=231  y=0    width=9    height=30   xoffset=0    yoffset=1    xadvance=8    page=0    chnl=0 
char id=205     x=38   y=0    width=9    height=31   xoffset=0    yoffset=0    xadvance=8    page=0    chnl=0 
char id=206     x=240  y=0    width=15   height=30   xoffset=-2   yoffset=1    xadvance=8    page=0    chnl=0 
char id=207     x=112  y=31   width=8    height=28   xoffset=0    yoffset=3    xadvance=8    page=0    chnl=0 
char id=208     x=46   y=109  width=21   height=24   xoffset=0    yoffset=7    xadvance=21   page=0    chnl=0 
char id=209     x=21   y=31   width=18   height=29   xoffset=2    yoffset=2    xadvance=21   page=0    chnl=0 
char id=210     x=255  y=0    width=19   height=30   xoffset=1    yoffset=1    xadvance=20   page=0    chnl=0 
char id=211     x=47   y=0    width=19   height=31   xoffset=1    yoffset=0    xadvance=20   page=0    chnl=0 
char id=212     x=274  y=0    width=19   height=30   xoffset=1    yoffset=1    xadvance=20   page=0    chnl=0 
char id=213     x=39   y=31   width=19   height=29   xoffset=1    yoffset=2    xadvance=20   page=0    chnl=0 
char id=214     x=120  y=31   width=19   height=28   xoffset=1    yoffset=3    xadvance=20   page=0    chnl=0 
char id=215     x=181  y=133  width=16   height=16   xoffset=2    yoffset=11   xadvance=19   page=0    chnl=0 
char id=216     x=67   y=109  width=19   height=24   xoffset=1    yoffset=7    xadvance=20   page=0    chnl=0 
char id=217     x=293  y=0    width=16   height=30   xoffset=2    yoffset=1    xadvance=19   page=0    chnl=0 
char id=218     x=66   y=0    width=16   height=31   xoffset=2    yoffset=0    xadvance=19   page=0    chnl=0 
char id=219     x=309  y=0    width=16   height=30   xoffset=2    yoffset=1    xadvance=19   page=0    chnl=0 
char id=220     x=139  y=31   width=16   height=28   xoffset=2    yoffset=3    xadvance=19   page=0    chnl=0 
char id=221     x=82   y=0    width=18   height=31   xoffset=-1   yoffset=0    xadvance=16   page=0    chnl=0 
char id=222     x=86   y=109  width=16   height=24   xoffset=2    yoffset=7    xadvance=18   page=0    chnl=0 
char id=223     x=389  y=31   width=19   height=25   xoffset=-1   yoffset=8    xadvance=18   page=0    chnl=0 
char id=224     x=408  y=31   width=16   height=25   xoffset=0    yoffset=6    xadvance=17   page=0    chnl=0 
char id=225     x=231  y=31   width=16   height=26   xoffset=0    yoffset=5    xadvance=17   page=0    chnl=0 
char id=226     x=424  y=31   width=16   height=25   xoffset=0    yoffset=6    xadvance=17   page=0    chnl=0 
char id=227     x=102  y=109  width=16   height=24   xoffset=0    yoffset=7    xadvance=17   page=0    chnl=0 
char id=228     x=201  y=109  width=16   height=23   xoffset=0    yoffset=8    xadvance=17   page=0    chnl=0 
char id=229     x=247  y=31   width=16   height=26   xoffset=0    yoffset=5    xadvance=17   page=0    chnl=0 
char id=230     x=85   y=133  width=26   height=19   xoffset=0    yoffset=12   xadvance=27   page=0    chnl=0 
char id=231     x=118  y=109  width=15   height=24   xoffset=0    yoffset=12   xadvance=15   page=0    chnl=0 
char id=232     x=440  y=31   width=16   height=25   xoffset=0    yoffset=6    xadvance=17   page=0    chnl=0 
char id=233     x=263  y=31   width=16   height=26   xoffset=0    yoffset=5    xadvance=17   page=0    chnl=0 
char id=234     x=456  y=31   width=16   height=25   xoffset=0    yoffset=6    xadvance=17   page=0    chnl=0 
char id=235     x=217  y=109  width=16   height=23   xoffset=0    yoffset=8    xadvance=17   page=0    chnl=0 
char id=236     x=472  y=31   width=10   height=25   xoffset=-3   yoffset=6    xadvance=7    page=0    chnl=0 
char id=237     x=279  y=31   width=11   height=26   xoffset=1    yoffset=5    xadvance=7    page=0    chnl=0 
char id=238     x=482  y=31   width=16   height=25   xoffset=-3   yoffset=6    xadvance=7    page=0    chnl=0 
char id=239     x=233  y=109  width=9    height=23   xoffset=-1   yoffset=8    xadvance=7    page=0    chnl=0 
char id=240     x=290  y=31   width=17   height=26   xoffset=0    yoffset=5    xadvance=17   page=0    chnl=0 
char id=241     x=133  y=109  width=15   height=24   xoffset=1    yoffset=7    xadvance=17   page=0    chnl=0 
char id=242     x=0    y=60   width=17   height=25   xoffset=0    yoffset=6    xadvance=17   page=0    chnl=0 
char id=243     x=307  y=31   width=17   height=26   xoffset=0    yoffset=5    xadvance=17   page=0    chnl=0 
char id=244     x=17   y=60   width=17   height=25   xoffset=0    yoffset=6    xadvance=17   page=0    chnl=0 
char id=245     x=148  y=109  width=17   height=24   xoffset=0    yoffset=7    xadvance=17   page=0    chnl=0 
char id=246     x=242  y=109  width=17   height=23   xoffset=0    yoffset=8    xadvance=17   page=0    chnl=0 
char id=247     x=278  y=133  width=17   height=12   xoffset=1    yoffset=13   xadvance=19   page=0    chnl=0 
char id=248     x=330  y=109  width=18   height=20   xoffset=-1   yoffset=11   xadvance=17   page=0    chnl=0 
char id=249     x=34   y=60   width=15   height=25   xoffset=1    yoffset=6    xadvance=17   page=0    chnl=0 
char id=250     x=324  y=31   width=15   height=26   xoffset=1    yoffset=5    xadvance=17   page=0    chnl=0 
char id=251     x=49   y=60   width=15   height=25   xoffset=1    yoffset=6    xadvance=17   page=0    chnl=0 
char id=252     x=259  y=109  width=15   height=23   xoffset=1    yoffset=8    xadvance=17   page=0    chnl=0 
char id=253     x=100  y=0    width=16   height=31   xoffset=-2   yoffset=5    xadvance=13   page=0    chnl=0 
char id=254     x=58   y=31   width=16   height=29   xoffset=1    yoffset=7    xadvance=17   page=0    chnl=0 
char id=255     x=155  y=31   width=16   height=28   xoffset=-2   yoffset=8    xadvance=13   page=0    chnl=0 
kernings count=225
kerning first=121 second=44 amount=-1
kerning first=70 second=111 amount=-1
kerning first=49 second=48 amount=-1
kerning first=50 second=49 amount=-1
kerning first=55 second=52 amount=-3
kerning first=102 second=101 amount=-1
kerning first=49 second=54 amount=-1
kerning first=49 second=55 amount=-2
kerning first=56 second=55 amount=-1
kerning first=71 second=86 amount=-1
kerning first=86 second=67 amount=-1
kerning first=70 second=74 amount=-2
kerning first=65 second=79 amount=-1
kerning first=88 second=81 amount=-1
kerning first=85 second=65 amount=-1
kerning first=87 second=84 amount=1
kerning first=65 second=85 amount=-1
kerning first=65 second=87 amount=-1
kerning first=76 second=89 amount=-2
kerning first=109 second=118 amount=-1
kerning first=116 second=101 amount=-1
kerning first=84 second=97 amount=-2
kerning first=86 second=103 amount=-1
kerning first=84 second=99 amount=-2
kerning first=114 second=100 amount=-1
kerning first=89 second=46 amount=-2
kerning first=102 second=102 amount=1
kerning first=89 second=103 amount=-2
kerning first=65 second=119 amount=-1
kerning first=76 second=71 amount=-1
kerning first=75 second=111 amount=-1
kerning first=89 second=112 amount=-1
kerning first=86 second=114 amount=-1
kerning first=84 second=115 amount=-2
kerning first=114 second=116 amount=1
kerning first=75 second=117 amount=-1
kerning first=110 second=118 amount=-1
kerning first=101 second=119 amount=-1
kerning first=114 second=120 amount=1
kerning first=75 second=121 amount=-1
kerning first=70 second=97 amount=-1
kerning first=80 second=46 amount=-3
kerning first=107 second=117 amount=-1
kerning first=65 second=71 amount=-1
kerning first=187 second=87 amount=-1
kerning first=70 second=101 amount=-1
kerning first=118 second=46 amount=-1
kerning first=187 second=84 amount=-2
kerning first=68 second=86 amount=-1
kerning first=87 second=103 amount=-1
kerning first=70 second=46 amount=-3
kerning first=97 second=118 amount=-1
kerning first=87 second=111 amount=-1
kerning first=45 second=89 amount=-1
kerning first=121 second=45 amount=1
kerning first=88 second=121 amount=-1
kerning first=88 second=79 amount=-1
kerning first=76 second=84 amount=-2
kerning first=111 second=118 amount=-1
kerning first=86 second=97 amount=-1
kerning first=87 second=44 amount=-1
kerning first=86 second=117 amount=-1
kerning first=84 second=111 amount=-2
kerning first=68 second=84 amount=-1
kerning first=51 second=49 amount=-2
kerning first=101 second=118 amount=-1
kerning first=71 second=87 amount=-1
kerning first=50 second=55 amount=-1
kerning first=87 second=97 amount=-1
kerning first=110 second=121 amount=-1
kerning first=118 second=44 amount=-1
kerning first=86 second=101 amount=-1
kerning first=80 second=65 amount=-1
kerning first=79 second=84 amount=-1
kerning first=57 second=49 amount=-1
kerning first=66 second=89 amount=-1
kerning first=75 second=101 amount=-1
kerning first=55 second=58 amount=-2
kerning first=84 second=103 amount=-2
kerning first=121 second=46 amount=-1
kerning first=55 second=54 amount=-2
kerning first=89 second=67 amount=-1
kerning first=187 second=89 amount=-2
kerning first=89 second=101 amount=-2
kerning first=114 second=102 amount=1
kerning first=110 second=119 amount=-1
kerning first=83 second=86 amount=-1
kerning first=76 second=79 amount=-1
kerning first=83 second=87 amount=-1
kerning first=86 second=59 amount=-1
kerning first=102 second=116 amount=1
kerning first=75 second=67 amount=-1
kerning first=54 second=49 amount=-1
kerning first=84 second=101 amount=-2
kerning first=107 second=111 amount=-1
kerning first=83 second=89 amount=-1
kerning first=48 second=49 amount=-1
kerning first=84 second=74 amount=-2
kerning first=87 second=171 amount=-1
kerning first=86 second=79 amount=-1
kerning first=71 second=84 amount=-1
kerning first=49 second=49 amount=-1
kerning first=55 second=55 amount=-1
kerning first=76 second=45 amount=-3
kerning first=86 second=46 amount=-2
kerning first=84 second=79 amount=-1
kerning first=97 second=121 amount=-1
kerning first=89 second=65 amount=-2
kerning first=52 second=55 amount=-2
kerning first=187 second=86 amount=-1
kerning first=114 second=121 amount=1
kerning first=70 second=114 amount=-1
kerning first=49 second=52 amount=-1
kerning first=65 second=45 amount=1
kerning first=82 second=111 amount=-1
kerning first=55 second=46 amount=-4
kerning first=46 second=49 amount=-1
kerning first=48 second=55 amount=-2
kerning first=84 second=87 amount=1
kerning first=89 second=58 amount=-1
kerning first=76 second=67 amount=-1
kerning first=82 second=117 amount=-1
kerning first=88 second=111 amount=-1
kerning first=89 second=79 amount=-1
kerning first=114 second=44 amount=-2
kerning first=89 second=44 amount=-2
kerning first=82 second=89 amount=-1
kerning first=65 second=81 amount=-1
kerning first=79 second=89 amount=-1
kerning first=79 second=88 amount=-1
kerning first=52 second=49 amount=-2
kerning first=86 second=44 amount=-2
kerning first=84 second=45 amount=-1
kerning first=88 second=67 amount=-1
kerning first=86 second=58 amount=-1
kerning first=87 second=101 amount=-1
kerning first=45 second=65 amount=1
kerning first=84 second=59 amount=-2
kerning first=68 second=89 amount=-1
kerning first=97 second=119 amount=-1
kerning first=65 second=121 amount=-1
kerning first=84 second=67 amount=-1
kerning first=68 second=74 amount=-1
kerning first=111 second=121 amount=-1
kerning first=89 second=71 amount=-1
kerning first=86 second=84 amount=1
kerning first=70 second=65 amount=-1
kerning first=57 second=55 amount=-2
kerning first=87 second=117 amount=-1
kerning first=76 second=87 amount=-2
kerning first=89 second=45 amount=-1
kerning first=89 second=117 amount=-2
kerning first=83 second=84 amount=-1
kerning first=120 second=111 amount=-1
kerning first=114 second=45 amount=-1
kerning first=89 second=171 amount=-2
kerning first=70 second=44 amount=-3
kerning first=89 second=59 amount=-1
kerning first=84 second=46 amount=-2
kerning first=104 second=121 amount=-1
kerning first=84 second=65 amount=-2
kerning first=102 second=111 amount=-1
kerning first=71 second=89 amount=-1
kerning first=86 second=71 amount=-1
kerning first=87 second=58 amount=-1
kerning first=44 second=49 amount=-1
kerning first=65 second=67 amount=-1
kerning first=89 second=97 amount=-2
kerning first=55 second=49 amount=-3
kerning first=75 second=71 amount=-1
kerning first=114 second=46 amount=-2
kerning first=114 second=119 amount=1
kerning first=76 second=121 amount=-1
kerning first=51 second=55 amount=-2
kerning first=87 second=65 amount=-1
kerning first=84 second=89 amount=1
kerning first=84 second=44 amount=-2
kerning first=53 second=55 amount=-1
kerning first=82 second=101 amount=-1
kerning first=50 second=52 amount=-1
kerning first=79 second=87 amount=-1
kerning first=86 second=111 amount=-1
kerning first=80 second=44 amount=-3
kerning first=87 second=114 amount=-1
kerning first=107 second=101 amount=-1
kerning first=84 second=58 amount=-2
kerning first=65 second=86 amount=-1
kerning first=109 second=121 amount=-1
kerning first=86 second=171 amount=-1
kerning first=65 second=118 amount=-1
kerning first=89 second=84 amount=1
kerning first=76 second=86 amount=-2
kerning first=84 second=121 amount=-2
kerning first=89 second=111 amount=-2
kerning first=65 second=89 amount=-2
kerning first=45 second=84 amount=-1
kerning first=56 second=49 amount=-1
kerning first=120 second=101 amount=-1
kerning first=86 second=65 amount=-1
kerning first=79 second=86 amount=-1
kerning first=84 second=114 amount=-2
kerning first=114 second=111 amount=-1
kerning first=68 second=65 amount=-1
kerning first=87 second=46 amount=-1
kerning first=70 second=117 amount=-1
kerning first=114 second=118 amount=1
kerning first=101 second=120 amount=-1
kerning first=84 second=119 amount=-2
kerning first=84 second=118 amount=-2
kerning first=80 second=74 amount=-2
kerning first=119 second=46 amount=-1
kerning first=119 second=45 amount=1
kerning first=109 second=119 amount=-1
kerning first=88 second=101 amount=-1
kerning first=119 second=44 amount=-1
kerning first=53 second=49 amount=-2
kerning first=84 second=86 amount=1
kerning first=101 second=121 amount=-1
kerning first=75 second=79 amount=-1
kerning first=84 second=117 amount=-2
kerning first=84 second=71 amount=-1
kerning first=65 second=117 amount=-1
kerning first=79 second=65 amount=-1
kerning first=65 second=84 amount=-2
kerning first=84 second=171 amount=-2
