info face="Franklin Gothic Book" size=30 bold=0 italic=0 charset="" unicode=0 stretchH=100 smooth=1 aa=1 padding=1,1,1,1 spacing=-2,-2
common lineHeight=35 base=28 scaleW=512 scaleH=512 pages=1 packed=0
page id=0 file="FRABK_30.png"
chars count=97
char id=0       x=159  y=0    width=26   height=25   xoffset=2    yoffset=4    xadvance=30   page=0    chnl=0 
char id=10      x=0    y=0    width=0    height=0    xoffset=-1   yoffset=0    xadvance=0    page=0    chnl=0 
char id=32      x=0    y=0    width=0    height=0    xoffset=-1   yoffset=0    xadvance=8    page=0    chnl=0 
char id=33      x=403  y=28   width=5    height=23   xoffset=2    yoffset=6    xadvance=8    page=0    chnl=0 
char id=34      x=295  y=51   width=9    height=11   xoffset=1    yoffset=6    xadvance=9    page=0    chnl=0 
char id=35      x=468  y=28   width=18   height=23   xoffset=0    yoffset=6    xadvance=18   page=0    chnl=0 
char id=36      x=124  y=0    width=18   height=27   xoffset=0    yoffset=4    xadvance=18   page=0    chnl=0 
char id=37      x=446  y=28   width=22   height=23   xoffset=0    yoffset=6    xadvance=22   page=0    chnl=0 
char id=38      x=486  y=28   width=20   height=23   xoffset=0    yoffset=6    xadvance=20   page=0    chnl=0 
char id=39      x=304  y=51   width=5    height=11   xoffset=0    yoffset=6    xadvance=5    page=0    chnl=0 
char id=40      x=29   y=0    width=7    height=28   xoffset=1    yoffset=6    xadvance=9    page=0    chnl=0 
char id=41      x=36   y=0    width=9    height=28   xoffset=0    yoffset=6    xadvance=9    page=0    chnl=0 
char id=42      x=263  y=51   width=15   height=16   xoffset=2    yoffset=6    xadvance=18   page=0    chnl=0 
char id=43      x=246  y=51   width=17   height=17   xoffset=1    yoffset=9    xadvance=18   page=0    chnl=0 
char id=44      x=326  y=51   width=5    height=8    xoffset=1    yoffset=24   xadvance=8    page=0    chnl=0 
char id=45      x=361  y=51   width=10   height=5    xoffset=-1   yoffset=17   xadvance=8    page=0    chnl=0 
char id=46      x=356  y=51   width=5    height=5    xoffset=2    yoffset=24   xadvance=8    page=0    chnl=0 
char id=47      x=86   y=0    width=19   height=28   xoffset=-3   yoffset=6    xadvance=14   page=0    chnl=0 
char id=48      x=385  y=28   width=18   height=23   xoffset=0    yoffset=6    xadvance=18   page=0    chnl=0 
char id=49      x=229  y=28   width=17   height=23   xoffset=2    yoffset=6    xadvance=18   page=0    chnl=0 
char id=50      x=246  y=28   width=17   height=23   xoffset=1    yoffset=6    xadvance=18   page=0    chnl=0 
char id=51      x=263  y=28   width=18   height=23   xoffset=0    yoffset=6    xadvance=18   page=0    chnl=0 
char id=52      x=281  y=28   width=18   height=23   xoffset=0    yoffset=6    xadvance=18   page=0    chnl=0 
char id=53      x=299  y=28   width=17   height=23   xoffset=0    yoffset=6    xadvance=18   page=0    chnl=0 
char id=54      x=316  y=28   width=16   height=23   xoffset=1    yoffset=6    xadvance=18   page=0    chnl=0 
char id=55      x=332  y=28   width=17   height=23   xoffset=1    yoffset=6    xadvance=18   page=0    chnl=0 
char id=56      x=349  y=28   width=18   height=23   xoffset=0    yoffset=6    xadvance=18   page=0    chnl=0 
char id=57      x=367  y=28   width=18   height=23   xoffset=0    yoffset=6    xadvance=18   page=0    chnl=0 
char id=58      x=212  y=51   width=5    height=18   xoffset=1    yoffset=11   xadvance=8    page=0    chnl=0 
char id=59      x=506  y=28   width=5    height=21   xoffset=1    yoffset=11   xadvance=8    page=0    chnl=0 
char id=60      x=12   y=51   width=15   height=19   xoffset=1    yoffset=9    xadvance=18   page=0    chnl=0 
char id=61      x=309  y=51   width=17   height=10   xoffset=1    yoffset=12   xadvance=18   page=0    chnl=0 
char id=62      x=27   y=51   width=17   height=19   xoffset=1    yoffset=9    xadvance=18   page=0    chnl=0 
char id=63      x=408  y=28   width=16   height=23   xoffset=-1   yoffset=6    xadvance=15   page=0    chnl=0 
char id=64      x=424  y=28   width=22   height=23   xoffset=0    yoffset=6    xadvance=22   page=0    chnl=0 
char id=65      x=185  y=0    width=20   height=23   xoffset=-2   yoffset=6    xadvance=16   page=0    chnl=0 
char id=66      x=205  y=0    width=17   height=23   xoffset=1    yoffset=6    xadvance=18   page=0    chnl=0 
char id=67      x=222  y=0    width=18   height=23   xoffset=0    yoffset=6    xadvance=17   page=0    chnl=0 
char id=68      x=240  y=0    width=18   height=23   xoffset=1    yoffset=6    xadvance=19   page=0    chnl=0 
char id=69      x=258  y=0    width=16   height=23   xoffset=1    yoffset=6    xadvance=16   page=0    chnl=0 
char id=70      x=274  y=0    width=16   height=23   xoffset=1    yoffset=6    xadvance=15   page=0    chnl=0 
char id=71      x=290  y=0    width=19   height=23   xoffset=0    yoffset=6    xadvance=19   page=0    chnl=0 
char id=72      x=309  y=0    width=16   height=23   xoffset=1    yoffset=6    xadvance=19   page=0    chnl=0 
char id=73      x=325  y=0    width=5    height=23   xoffset=1    yoffset=6    xadvance=8    page=0    chnl=0 
char id=74      x=330  y=0    width=10   height=23   xoffset=-1   yoffset=6    xadvance=11   page=0    chnl=0 
char id=75      x=340  y=0    width=18   height=23   xoffset=1    yoffset=6    xadvance=19   page=0    chnl=0 
char id=76      x=358  y=0    width=16   height=23   xoffset=1    yoffset=6    xadvance=15   page=0    chnl=0 
char id=77      x=374  y=0    width=21   height=23   xoffset=1    yoffset=6    xadvance=24   page=0    chnl=0 
char id=78      x=395  y=0    width=17   height=23   xoffset=1    yoffset=6    xadvance=20   page=0    chnl=0 
char id=79      x=412  y=0    width=19   height=23   xoffset=0    yoffset=6    xadvance=19   page=0    chnl=0 
char id=80      x=431  y=0    width=16   height=23   xoffset=1    yoffset=6    xadvance=17   page=0    chnl=0 
char id=81      x=0    y=0    width=19   height=28   xoffset=0    yoffset=6    xadvance=19   page=0    chnl=0 
char id=82      x=447  y=0    width=16   height=23   xoffset=1    yoffset=6    xadvance=18   page=0    chnl=0 
char id=83      x=463  y=0    width=18   height=23   xoffset=-1   yoffset=6    xadvance=17   page=0    chnl=0 
char id=84      x=481  y=0    width=17   height=23   xoffset=-1   yoffset=6    xadvance=15   page=0    chnl=0 
char id=85      x=0    y=28   width=17   height=23   xoffset=1    yoffset=6    xadvance=18   page=0    chnl=0 
char id=86      x=17   y=28   width=18   height=23   xoffset=-1   yoffset=6    xadvance=16   page=0    chnl=0 
char id=87      x=35   y=28   width=28   height=23   xoffset=-2   yoffset=6    xadvance=25   page=0    chnl=0 
char id=88      x=63   y=28   width=18   height=23   xoffset=-1   yoffset=6    xadvance=16   page=0    chnl=0 
char id=89      x=81   y=28   width=18   height=23   xoffset=-2   yoffset=6    xadvance=15   page=0    chnl=0 
char id=90      x=99   y=28   width=17   height=23   xoffset=0    yoffset=6    xadvance=16   page=0    chnl=0 
char id=91      x=45   y=0    width=8    height=28   xoffset=1    yoffset=6    xadvance=9    page=0    chnl=0 
char id=92      x=105  y=0    width=19   height=28   xoffset=-1   yoffset=6    xadvance=14   page=0    chnl=0 
char id=93      x=53   y=0    width=8    height=28   xoffset=-1   yoffset=6    xadvance=9    page=0    chnl=0 
char id=94      x=278  y=51   width=17   height=12   xoffset=-1   yoffset=6    xadvance=15   page=0    chnl=0 
char id=95      x=371  y=51   width=18   height=5    xoffset=-1   yoffset=28   xadvance=15   page=0    chnl=0 
char id=96      x=331  y=51   width=9    height=7    xoffset=1    yoffset=5    xadvance=15   page=0    chnl=0 
char id=97      x=44   y=51   width=15   height=18   xoffset=0    yoffset=11   xadvance=16   page=0    chnl=0 
char id=98      x=116  y=28   width=15   height=23   xoffset=1    yoffset=6    xadvance=16   page=0    chnl=0 
char id=99      x=217  y=51   width=14   height=17   xoffset=0    yoffset=12   xadvance=14   page=0    chnl=0 
char id=100     x=131  y=28   width=15   height=23   xoffset=0    yoffset=6    xadvance=16   page=0    chnl=0 
char id=101     x=231  y=51   width=15   height=17   xoffset=0    yoffset=12   xadvance=16   page=0    chnl=0 
char id=102     x=498  y=0    width=12   height=23   xoffset=-1   yoffset=6    xadvance=9    page=0    chnl=0 
char id=103     x=142  y=0    width=17   height=25   xoffset=0    yoffset=9    xadvance=15   page=0    chnl=0 
char id=104     x=146  y=28   width=14   height=23   xoffset=1    yoffset=6    xadvance=16   page=0    chnl=0 
char id=105     x=160  y=28   width=5    height=23   xoffset=1    yoffset=6    xadvance=7    page=0    chnl=0 
char id=106     x=19   y=0    width=10   height=28   xoffset=-3   yoffset=6    xadvance=7    page=0    chnl=0 
char id=107     x=165  y=28   width=14   height=23   xoffset=1    yoffset=6    xadvance=15   page=0    chnl=0 
char id=108     x=179  y=28   width=5    height=23   xoffset=1    yoffset=6    xadvance=7    page=0    chnl=0 
char id=109     x=59   y=51   width=22   height=18   xoffset=1    yoffset=11   xadvance=24   page=0    chnl=0 
char id=110     x=81   y=51   width=14   height=18   xoffset=1    yoffset=11   xadvance=16   page=0    chnl=0 
char id=111     x=95   y=51   width=16   height=18   xoffset=0    yoffset=11   xadvance=16   page=0    chnl=0 
char id=112     x=184  y=28   width=15   height=23   xoffset=1    yoffset=11   xadvance=16   page=0    chnl=0 
char id=113     x=199  y=28   width=15   height=23   xoffset=0    yoffset=11   xadvance=16   page=0    chnl=0 
char id=114     x=111  y=51   width=10   height=18   xoffset=1    yoffset=11   xadvance=10   page=0    chnl=0 
char id=115     x=121  y=51   width=14   height=18   xoffset=-1   yoffset=11   xadvance=14   page=0    chnl=0 
char id=116     x=0    y=51   width=12   height=21   xoffset=-1   yoffset=8    xadvance=9    page=0    chnl=0 
char id=117     x=135  y=51   width=14   height=18   xoffset=1    yoffset=11   xadvance=16   page=0    chnl=0 
char id=118     x=149  y=51   width=15   height=18   xoffset=-1   yoffset=11   xadvance=14   page=0    chnl=0 
char id=119     x=164  y=51   width=21   height=18   xoffset=-1   yoffset=11   xadvance=20   page=0    chnl=0 
char id=120     x=185  y=51   width=14   height=18   xoffset=-1   yoffset=11   xadvance=13   page=0    chnl=0 
char id=121     x=214  y=28   width=15   height=23   xoffset=-2   yoffset=11   xadvance=12   page=0    chnl=0 
char id=122     x=199  y=51   width=13   height=18   xoffset=0    yoffset=11   xadvance=13   page=0    chnl=0 
char id=123     x=61   y=0    width=10   height=28   xoffset=0    yoffset=6    xadvance=9    page=0    chnl=0 
char id=124     x=81   y=0    width=5    height=28   xoffset=5    yoffset=6    xadvance=15   page=0    chnl=0 
char id=125     x=71   y=0    width=10   height=28   xoffset=0    yoffset=6    xadvance=9    page=0    chnl=0 
char id=126     x=340  y=51   width=16   height=7    xoffset=1    yoffset=14   xadvance=18   page=0    chnl=0 
kernings count=205
kerning first=87 second=44 amount=-1
kerning first=70 second=111 amount=-1
kerning first=49 second=48 amount=-1
kerning first=50 second=49 amount=-1
kerning first=102 second=101 amount=-1
kerning first=49 second=54 amount=-1
kerning first=48 second=55 amount=-2
kerning first=55 second=58 amount=-2
kerning first=56 second=55 amount=-1
kerning first=71 second=86 amount=-1
kerning first=87 second=65 amount=-1
kerning first=86 second=67 amount=-1
kerning first=101 second=120 amount=-1
kerning first=86 second=79 amount=-1
kerning first=88 second=81 amount=-1
kerning first=86 second=84 amount=1
kerning first=65 second=85 amount=-1
kerning first=65 second=86 amount=-1
kerning first=83 second=87 amount=-1
kerning first=79 second=88 amount=-1
kerning first=76 second=89 amount=-2
kerning first=89 second=117 amount=-1
kerning first=84 second=97 amount=-2
kerning first=86 second=103 amount=-1
kerning first=84 second=99 amount=-2
kerning first=116 second=101 amount=-1
kerning first=102 second=102 amount=1
kerning first=101 second=119 amount=-1
kerning first=75 second=111 amount=-1
kerning first=89 second=112 amount=-1
kerning first=84 second=114 amount=-2
kerning first=84 second=115 amount=-2
kerning first=114 second=116 amount=1
kerning first=75 second=117 amount=-1
kerning first=65 second=118 amount=-1
kerning first=110 second=119 amount=-1
kerning first=114 second=120 amount=1
kerning first=75 second=121 amount=-1
kerning first=70 second=97 amount=-1
kerning first=80 second=46 amount=-3
kerning first=65 second=71 amount=-1
kerning first=55 second=52 amount=-3
kerning first=70 second=101 amount=-1
kerning first=118 second=46 amount=-1
kerning first=79 second=86 amount=-1
kerning first=70 second=46 amount=-3
kerning first=87 second=111 amount=-1
kerning first=65 second=84 amount=-2
kerning first=45 second=89 amount=-1
kerning first=88 second=121 amount=-1
kerning first=88 second=79 amount=-1
kerning first=76 second=84 amount=-2
kerning first=111 second=118 amount=-1
kerning first=86 second=117 amount=-1
kerning first=84 second=111 amount=-2
kerning first=68 second=84 amount=-1
kerning first=51 second=49 amount=-1
kerning first=71 second=87 amount=-1
kerning first=87 second=97 amount=-1
kerning first=110 second=121 amount=-1
kerning first=89 second=103 amount=-2
kerning first=118 second=44 amount=-1
kerning first=86 second=101 amount=-1
kerning first=80 second=65 amount=-1
kerning first=97 second=118 amount=-1
kerning first=79 second=84 amount=-1
kerning first=57 second=49 amount=-1
kerning first=79 second=65 amount=-1
kerning first=75 second=101 amount=-1
kerning first=50 second=55 amount=-1
kerning first=114 second=44 amount=-2
kerning first=121 second=46 amount=-1
kerning first=55 second=54 amount=-2
kerning first=89 second=67 amount=-1
kerning first=89 second=101 amount=-2
kerning first=83 second=86 amount=-1
kerning first=68 second=86 amount=-1
kerning first=76 second=79 amount=-1
kerning first=86 second=59 amount=-1
kerning first=86 second=97 amount=-1
kerning first=75 second=67 amount=-1
kerning first=54 second=49 amount=-1
kerning first=65 second=79 amount=-1
kerning first=84 second=101 amount=-2
kerning first=107 second=111 amount=-1
kerning first=83 second=89 amount=-1
kerning first=48 second=49 amount=-1
kerning first=84 second=74 amount=-2
kerning first=89 second=97 amount=-2
kerning first=102 second=116 amount=1
kerning first=71 second=84 amount=-1
kerning first=86 second=65 amount=-1
kerning first=49 second=49 amount=-1
kerning first=55 second=55 amount=-1
kerning first=76 second=45 amount=-3
kerning first=86 second=46 amount=-2
kerning first=84 second=79 amount=-1
kerning first=97 second=121 amount=-1
kerning first=52 second=55 amount=-2
kerning first=87 second=103 amount=-1
kerning first=49 second=52 amount=-1
kerning first=65 second=45 amount=1
kerning first=55 second=46 amount=-3
kerning first=46 second=49 amount=-1
kerning first=89 second=65 amount=-2
kerning first=89 second=58 amount=-1
kerning first=82 second=117 amount=-1
kerning first=88 second=111 amount=-1
kerning first=84 second=87 amount=1
kerning first=114 second=121 amount=1
kerning first=89 second=79 amount=-1
kerning first=89 second=44 amount=-2
kerning first=107 second=117 amount=-1
kerning first=79 second=89 amount=-1
kerning first=52 second=49 amount=-2
kerning first=86 second=44 amount=-2
kerning first=84 second=45 amount=-1
kerning first=88 second=67 amount=-1
kerning first=76 second=71 amount=-1
kerning first=86 second=58 amount=-1
kerning first=87 second=101 amount=-1
kerning first=45 second=65 amount=1
kerning first=84 second=59 amount=-2
kerning first=110 second=118 amount=-1
kerning first=97 second=119 amount=-1
kerning first=68 second=74 amount=-1
kerning first=89 second=71 amount=-1
kerning first=70 second=65 amount=-1
kerning first=57 second=55 amount=-2
kerning first=87 second=117 amount=-1
kerning first=76 second=87 amount=-1
kerning first=89 second=45 amount=-1
kerning first=121 second=44 amount=-1
kerning first=83 second=84 amount=-1
kerning first=86 second=114 amount=-1
kerning first=70 second=44 amount=-3
kerning first=89 second=59 amount=-1
kerning first=84 second=46 amount=-2
kerning first=104 second=121 amount=-1
kerning first=84 second=65 amount=-2
kerning first=102 second=111 amount=-1
kerning first=70 second=74 amount=-2
kerning first=71 second=89 amount=-1
kerning first=86 second=71 amount=-1
kerning first=84 second=67 amount=-1
kerning first=44 second=49 amount=-1
kerning first=65 second=67 amount=-1
kerning first=65 second=119 amount=-1
kerning first=84 second=103 amount=-2
kerning first=55 second=49 amount=-2
kerning first=75 second=71 amount=-1
kerning first=114 second=46 amount=-2
kerning first=114 second=119 amount=1
kerning first=76 second=121 amount=-1
kerning first=51 second=55 amount=-1
kerning first=84 second=89 amount=1
kerning first=84 second=44 amount=-2
kerning first=53 second=55 amount=-1
kerning first=82 second=101 amount=-1
kerning first=50 second=52 amount=-1
kerning first=86 second=111 amount=-1
kerning first=80 second=44 amount=-3
kerning first=87 second=114 amount=-1
kerning first=107 second=101 amount=-1
kerning first=114 second=102 amount=1
kerning first=84 second=58 amount=-2
kerning first=76 second=67 amount=-1
kerning first=89 second=46 amount=-2
kerning first=65 second=87 amount=-1
kerning first=101 second=118 amount=-1
kerning first=114 second=45 amount=-1
kerning first=89 second=84 amount=1
kerning first=76 second=86 amount=-2
kerning first=84 second=121 amount=-2
kerning first=89 second=111 amount=-2
kerning first=65 second=89 amount=-2
kerning first=45 second=84 amount=-1
kerning first=56 second=49 amount=-1
kerning first=120 second=101 amount=-1
kerning first=114 second=111 amount=-1
kerning first=68 second=65 amount=-1
kerning first=87 second=46 amount=-1
kerning first=65 second=81 amount=-1
kerning first=70 second=117 amount=-1
kerning first=114 second=118 amount=1
kerning first=70 second=114 amount=-1
kerning first=68 second=89 amount=-1
kerning first=84 second=119 amount=-2
kerning first=84 second=118 amount=-2
kerning first=80 second=74 amount=-2
kerning first=119 second=46 amount=-1
kerning first=109 second=119 amount=-1
kerning first=88 second=101 amount=-1
kerning first=119 second=44 amount=-1
kerning first=53 second=49 amount=-2
kerning first=49 second=55 amount=-2
kerning first=84 second=86 amount=1
kerning first=65 second=121 amount=-1
kerning first=75 second=79 amount=-1
kerning first=84 second=117 amount=-2
kerning first=84 second=71 amount=-1
kerning first=87 second=58 amount=-1
kerning first=109 second=118 amount=-1
kerning first=109 second=121 amount=-1
kerning first=87 second=84 amount=1
